Temperatura,Humedad,et0
21.9,56.3,5.4
22.7,46.3,5.4
20.7,46.6,4.7
21,46.6,5.4
22.4,39.7,5.6
22,42.5,5.4
22.7,45.1,5.1
22.4,46.6,5.3
20.7,55.1,4
22.4,51.5,5.1
23.4,46.1,5.5
24.6,42.6,5.7
25.9,41.5,5.9
23.8,39.7,5.2
21.9,39.8,5.4
22.5,44.9,5.3
24.3,44,5.9
25,36.9,5.6
24.7,36.8,5.3
25.7,38.8,5.4
24.4,44.4,5.4
22.4,53.4,4.9
22.4,56.6,4.6
23.8,44.5,5.6
25.9,40.4,5.6
25.2,50.4,5.4
24.8,58.2,5.1
24.3,57.2,4.9
24.8,54.3,4.7
24.1,52.4,4.7
23.7,46.7,5.2
22.6,48.4,4.6
20.4,48.7,4.6
15.9,60.5,2.7
18.1,64.2,3.3
21.6,50.8,5
22.4,42.4,4.7
20.6,46,5
17.6,63.8,4.4
18.4,53.2,4.4
20.9,45,4.2
21.3,43.8,4.7
22.4,47,5
22.2,51,4.9
21.1,60.4,4.5
21.6,55.5,4.6
20.3,58.9,4.4
18.8,61.2,4
19.7,49.9,4.3
22.3,47.3,4.5
23.7,46.8,4.7
24.5,50.2,4.7
24.1,54.4,4.8
23.8,58.3,4.3
23.6,59.1,3.9
23.4,55.5,3.8
22.7,60.8,3.1
22.5,64.6,4.1
22.2,65.7,4.2
21.8,64.7,4.1
21.2,67.2,3.7
20.4,49.4,3.4
18.9,45,3.7
19.7,49,3.1
21.4,40.1,3.8
20.8,36.5,3.1
18.3,39.4,3.9
18.3,50.7,3.8
17.8,50.4,3.6
17.3,46.9,3.8
19.9,35.5,4.1
20.1,35.8,4
17.4,64.3,3
18.6,60.7,3.3
19.5,54,3.5
19.6,55.1,3.4
21,52.6,3.6
19.3,58.8,3.3
18.5,63.2,3.2
19,58.7,3.3
17.8,64.7,3
18,67.4,3
14,86,1.1
17.7,64,3
16.2,63.8,2.7
17.9,58.6,2.9
17.9,60.8,2.9
15.9,66.8,2.5
15.9,62.4,2.6
16.4,60,2.6
13.8,67.1,2
14.9,63.7,2.5
16.4,54.1,2.3
16.2,59.1,2.4
16.8,61.8,2.4
17.1,52.7,2.8
12.9,72.3,1.2
11.9,70.2,1.9
12.3,59.8,2.2
15.1,48.7,2.2
18.6,37.7,2.6
16.8,49.3,2.2
14.6,67.1,2.1
14.1,69.7,1.9
15.6,67.4,1.6
16.2,63.6,1.4
15,67.8,1.9
15.7,70.1,2.1
15.7,71,1.6
14.3,97.4,0.7
16.2,85.3,1.5
16.3,68.6,1.8
13.4,70.2,1.6
11.5,72.8,1.2
10.8,77.1,1.5
11,68,1.5
12.9,49.2,1.8
14.6,43.2,1.7
15.8,45.3,1.6
16.1,50.3,1.6
11.1,77.2,1.3
11,82.4,1
12.6,61,1.5
14.2,51.4,1.4
12,67.3,1.4
10.4,83.6,0.9
11.5,81.8,1
13.5,83,1.3
13.2,85.5,1
11.6,91.7,0.7
10.8,91.5,0.7
12.6,76.4,1
14.4,75.9,1.3
10.7,90.3,0.7
10.9,80.5,1
9.3,91.3,0.6
10.2,84.5,0.7
7.5,86.7,0.7
6.6,80.7,0.9
7.9,73.5,0.8
9.3,71.4,0.8
8.4,79.5,0.6
8.3,88.6,0.6
7.9,89.3,0.7
8.5,90.3,0.7
10.1,79.3,0.9
10.1,73.6,0.9
8.2,84.9,0.7
9.4,85.6,0.8
8.9,84.6,0.8
9.9,74.1,0.9
8.9,68.5,0.7
8.1,76.8,0.7
7.7,78.4,0.7
6.2,79.1,0.7
5.4,81.2,0.6
6,69.4,0.6
4.5,73.9,0.6
7.4,89.8,0.6
7.3,81.1,0.6
8.6,70.8,0.8
8.4,71.2,0.8
9,70.7,0.7
7.3,90,0.6
5.9,98,0.5
6.6,86.5,0.6
10.2,88.5,0.8
6.1,90.7,0.5
4.5,83.9,0.6
5.3,76.6,0.6
9.3,60.8,0.7
7.9,73.1,0.6
9.7,78.7,0.8
10,88.9,0.6
9.5,89.7,0.6
10.6,83.9,0.9
9.9,92.9,0.6
9.9,88.7,0.7
8.8,80.5,0.7
8.7,73.5,0.8
10.1,67.2,0.9
12.5,58.9,0.9
10.3,75.8,0.8
8.1,94.1,0.5
6.2,92.6,0.6
4.2,90.9,0.5
8.5,71,0.6
10.9,70.7,0.8
9.8,74.9,0.6
9.4,77.8,0.8
8.1,85.3,0.7
10.9,67,0.9
8.3,78.6,0.8
8.5,88.8,0.7
7.8,83.5,0.8
3.7,81.8,0.7
3.9,76.5,0.8
5.9,63.8,0.7
9.7,59.4,1.1
11.4,60.3,1
11.5,58.1,1
11.3,65.3,1.1
8.2,94.2,0.5
7.9,88.5,0.5
7.5,88,0.8
7.4,84,1
9.9,73.2,0.9
8.9,77,1
8,78.8,0.8
7.5,79.2,0.9
9.7,77.6,1
9.6,76.9,0.8
6.9,88,0.6
8.6,74.4,1.1
10.1,64.5,1.4
7,94.1,0.9
7.2,92.3,0.6
8.3,79.5,0.9
8.8,84.5,0.8
10.9,73,1.1
9.3,67.5,0.7
8,91.6,0.8
6.2,93.3,0.5
5.9,82.5,1.1
7.7,77.7,0.8
8.9,77.3,1.4
9.7,81.9,1.5
9.6,82.2,1.5
8.6,78.7,1.5
7.8,82.9,1
9.3,79.7,1.5
8.5,81.3,1.1
8.1,78.9,1.7
10.3,73,1.9
11.6,73.1,2
9.2,86.8,1.3
10.9,79.8,1.7
9,81,0.8
8.8,66.4,2
10.1,63.2,1.5
9.2,74.1,1.7
9.7,73.2,2
7.4,88.9,0.8
7.9,84.2,0.9
7.1,85.9,1.1
6.2,86.5,0.9
9.5,78,2
10.9,70.7,1.8
9.3,77.8,1.7
11.5,62.6,2.4
15.7,50.1,2.9
15.7,60,2.7
11,87.6,2.1
10.3,83.7,1.1
11.9,67,2.3
12.9,64.7,2.8
14.6,58.2,3.1
16.3,54.1,3.1
14.3,69.3,2.6
14.1,61.5,2.7
13.9,59.2,2
15.1,59.1,2.2
14.6,66.8,1.7
15.5,66.8,2.1
9.4,82.2,1
10.7,77,2.3
10.5,74.1,1.6
15,60.8,2.9
11.3,74.3,1.7
10.5,81,2.3
14.6,73,3.1
11.4,87.1,1.9
12,76.6,2.4
12.5,70.5,2.9
11.5,65.1,2.7
8.9,75.7,1.8
11.4,61.1,2.8
13.4,60.6,3.2
16.9,55.2,3.5
16.1,63.1,3.5
11.9,78.6,2.6
13.1,78,2.2
14.3,74.7,2.7
17.3,60,3.8
12.8,72.6,1.2
15.7,59.3,3.8
18.4,48.4,3.6
18.3,49.7,3.8
16.7,54.7,3.7
16.6,68.3,3.8
14.7,73.9,3.1
16.4,68.5,3.7
12.3,73.4,3
10.7,77.2,1.6
13.1,61.5,3.5
13.3,62.2,2.6
11.7,66.7,1.2
12.1,78.5,2.4
14,68,2.9
14.5,62.9,1.8
18.5,57.9,3.9
17.5,73.5,2.7
17.3,77.7,2.5
18.9,64.3,3.5
19.4,54.2,4.2
20.9,45.3,4.8
21.7,43.7,4.6
20.5,54.5,4.5
19.3,62.3,4.4
18.4,70.3,4.5
16.6,63.4,3.8
17.7,49.7,4.4
17.6,54.2,4.3
17.7,50.6,4.5
19.5,47.9,4.5
16.7,50.5,3.9
19.2,42.4,4.7
21.8,38.9,4.8
20.9,42.6,4.7
16.5,54.2,4.3
20.2,50.5,4.7
20.1,52.4,4.7
19.8,59.7,4.7
16.5,70.9,4.2
16.8,70.2,4.2
19.6,59,4.5
18.3,60.8,4
15.6,72.1,3.9
18.6,59.3,4.4
19.8,58,4.7
18.3,66.9,4.5
18.4,65.8,4.6
20.4,56.8,4.9
19,62.9,4.7
21.8,50,5
22.7,49.2,5.4
17.9,72.5,4.4
16.6,74.1,3
19.7,59.8,4.5
22.6,47,5.7
23.8,40.5,5.7
20.1,54.1,3.8
22,50,4.9
21.7,47.5,4
22.9,48,5.1
22.8,48,4.7
22.9,48.5,4.6
22.4,43.6,4.6
22,41.5,4.7
22.4,40.4,4.5
22.9,41.8,4.7
22,52.9,4.8
23,48.9,4.7
23.9,45.6,4.6
23.4,49,4.6
22.8,47.5,4.3
20.1,59.6,3.6
20.4,57.1,4.6
21.3,49.4,4.7
22.6,42,5
22.3,51.2,5.3
22.2,55.1,5.3
23.9,39.6,5.8
22.5,46.9,5.2
21,60.4,5
21.8,59,5
22.8,58.7,5.2
21.7,64.8,4.9
20.9,65.3,4.4
20.7,62.6,3.5
20,68.9,4.6
18.5,71.9,3
19.5,60.8,4.9
21.5,52,5.2
23.1,45.3,5.3
22.7,50.3,5.2
20.2,67.2,4.7
19,73.4,4.3
20.1,68.6,4.1
20.1,66.5,4.7
22.1,55,4.9
20.8,58.5,4.7
19.7,58.9,4.7
21.7,48.1,5
23.9,38.1,5.2
22,43.8,4.9
20.1,55.6,4.7
23.4,47.3,4.5
23.4,47.6,4.8
21.7,59.9,4.5
21,66.2,4.3
22.8,61.8,4.5
21.8,63,4.1
21.8,62.8,4.3
21.9,62.8,4.5
21.6,60,4.5
21.6,48.8,4.9
20.2,39.3,4.9
21.4,37.7,4.6
23.4,33.9,4.6
22.4,45.7,4.7
20.6,62,4.1
21.7,61.6,4.2
22.5,60.1,4.4
22.2,57.1,4.3
21,60.8,4.3
20.1,70.5,4.1
21.4,54.5,4.2
22.3,56.9,4.4
22.1,51.1,4.3
20.3,56.8,3.4
20.7,59.6,4
20.3,56.1,4
20.3,61.2,4
17.6,75.7,3.3
18.9,68.4,3.7
21.1,61.7,3.9
21.4,58,3.9
19.7,65.4,3.7
19.8,60.8,3.7
21.9,47.7,3.8
20.9,51.3,3.9
17.7,69.2,3.3
18.5,69.7,3.2
18.9,66.5,3.6
17.7,64.3,3.3
18.8,47.2,3.9
18.8,40.1,4
18.6,42.4,3.3
17.4,40.6,3.3
18.8,39.7,3.3
17.5,45.5,3.5
15,61.5,3.1
16.1,65.9,3.1
16.9,57.5,3
18.2,56,3
18,55.9,3.1
17.1,56.1,2.9
17.3,58.7,3
17.5,57.3,3.2
19.5,40.1,3
18.3,42.3,2.6
19.1,46.8,2.9
19.6,48.2,2.8
20.3,49.2,3.3
19.8,49.9,3.1
18.5,53.8,2.9
17.1,63.3,2.6
16.3,69.4,2.5
17.3,66.6,2.5
17.5,63.7,2.5
17.4,64.9,2.4
15.4,67.9,1.6
15.9,69.8,2.1
16.6,62.2,2.3
13.9,71.8,2.1
14.2,71.5,1.4
15.8,70.5,2.2
15.1,70.5,2.1
15.4,65.9,2.1
16.1,65.8,2
17.2,57,2
15.5,63.8,2
16.8,63.4,2.1
16.2,61,2
16,61,2
16.2,56,1.9
16.7,55.1,1.8
15.5,62.9,1.8
13.6,66.9,1.1
15.5,62.6,1.8
16.2,49.9,1.8
13.9,48.3,1.6
13.6,49.5,1.4
15.8,48,1.2
13.6,69.6,1.5
10.5,81.1,1
11.6,69,1.1
13.1,67.3,1.3
15.7,58.5,1.4
15.5,52,1.2
15,56.3,1.5
13.6,70.7,1.4
13.8,77.7,1.3
13.6,75.7,1.3
12.2,76.6,1.1
11.9,69.9,1.2
13.3,57.9,1.3
14,51,1.7
11.1,81.9,0.8
11.1,75.6,0.9
11.9,71.8,1
14,59.9,1.2
11.9,61.2,1
10.4,58.7,1
11.7,45.1,1
12.9,34.9,1
11.8,54.6,1
11.9,57.6,0.9
12.5,46.1,0.8
13,40.5,1
12.7,36.7,1
6.1,80.3,0.7
9.4,61.4,0.7
11.5,62,1.3
11.4,78,0.9
9.5,91.3,0.6
7.2,77.9,0.8
5.6,75.7,0.7
6.1,73,0.8
7.2,71.4,0.8
3.5,73.1,0.5
5.1,57,0.8
9.2,56,0.8
9.7,60,0.8
12.6,47.2,0.8
10.3,67.6,0.9
7.7,79.9,0.8
4.1,91.1,0.6
4.4,78.3,0.6
5.4,62.9,0.6
8.3,63.3,0.6
10.2,62.5,0.8
11,62.1,0.8
13,57.6,0.7
14.1,51.6,0.9
9.2,75.4,0.7
9,76,0.8
8.3,73.1,0.6
8.2,70,0.8
7.3,74.6,0.6
9.4,80.3,0.9
8.1,84.6,0.7
9.8,77.3,0.7
11.2,69.6,0.8
10.1,80.7,0.7
11.6,77.4,0.8
6.4,94.4,0.5
8.1,84.1,0.6
9,82.9,0.6
9.1,81.6,0.7
9.1,82.3,0.9
9.6,79.8,1
9.2,91.8,0.6
8.9,86,0.7
11,77.1,0.7
11.1,71.4,0.7
5.6,99.7,0.4
7.9,85,0.7
8.7,79,0.8
12.7,61.2,0.8
11.5,76.3,1
11.3,83.6,0.8
10.8,73.6,0.9
8,73,0.9
6,72.1,0.6
4.3,73.1,0.8
5.1,60.8,0.8
7.2,57.3,0.8
5.5,69.7,1
6.2,65.5,0.8
7.1,64.7,1
9.4,59,0.8
8.9,67.2,1.1
5.9,89.7,0.6
6.5,77.8,0.9
6,74.7,0.8
6.7,64.8,0.9
7.7,63.2,0.9
6.4,71.5,0.7
3.6,88.3,0.5
7.4,67.6,1
7.8,61.2,1
10.8,55.2,0.9
10.9,57.5,0.9
9.5,73,1.3
9.7,55.2,1.4
14.8,49.1,1.4
13.4,59,1.3
12.7,62.8,1.4
10.8,72.6,1.4
10,69.5,1.5
9.9,57.5,1.3
13.3,49.6,1.5
13.2,57,1.5
11.6,70.5,1
9.8,74.6,1.2
8.2,64.1,1.5
10.9,53.9,1.8
11,58.9,1.5
6.7,82.5,0.9
6.1,86.8,0.7
6,68.8,1.5
9.5,57,1.8
14.7,48.7,2.2
9.4,77.6,1.6
9.4,84.4,1.5
11.1,69,2
11.3,69.5,1.4
9.3,86.3,0.8
10.9,74.5,1.8
12.7,55.5,2.3
14.9,48.1,2.3
16.3,48.4,3
10.7,84.4,1.5
11.1,71.9,2.1
12.9,59.7,2.3
13.5,52.8,2.3
14.2,49.4,2.3
16.2,47,2.6
14.3,53.2,2.4
12.2,59,1.5
12.2,64.7,2.3
9.6,81.3,2.1
8.6,92,0.6
11.6,69.5,2.3
12.5,67,1.4
10.9,81.7,1.6
10,78.8,1.2
12.2,75.5,1
15.8,57.6,3.1
13.4,70.7,2.8
14.1,72.1,2.6
11.9,71.9,1.4
12.7,67.8,1.5
14.3,61.2,1.9
13.5,65.5,1.5
12.7,74.7,1.4
11.4,81.3,1.1
9.7,77.7,1
11.4,68,2.8
12.4,57.6,3.3
14.4,45.2,3.4
16.7,45.7,3.3
15.5,61,3.3
16.2,54.2,3.3
13.6,63.6,2.4
12.1,72.3,2.4
12.3,73.3,2.1
12.5,67.4,1.6
14.1,61.8,3
10.3,79.3,1.9
11.4,72.8,2.2
13.5,66.4,3.3
14.6,63.8,3.5
9.6,83.3,0.9
12.1,71.5,2.8
14.4,63.2,3.3
15,63.5,3.4
14.1,63.8,3.5
15.7,55.3,3.7
17.3,45.1,3.1
15.2,53.5,2.9
16.1,55,2.9
16.5,57.6,2.4
17.9,54.6,3.7
19.2,50.4,3.2
18.3,57.8,2.4
17,67.4,2.5
16.3,69.7,3.3
18.1,59.4,4
14.8,67.8,1.3
